{
    "data": {
      "current_page": 6,
      "data": [
        {
          "id": 1,
          "user_id": 1,
          "title": "ساخت Api با Laravel و GraphQl",
          "body": "graphQl یک ابزار جدید برای ایجاد کردن Api پیشرفته برای برنامه های ماست که توسط فیسبوک معرفی شده است.  این ابزار به عنوان یک Query language شناخته میشود که به ما این قابلیت را میدهد تا api های انعطاف پذیرتری را بوجود آوریم . از این رو تصمیم گرفتیم روش ایجاد کردن Api در لاراول را با استفاده از GraphQl به شما آموزش دهیم .",
          "image": "https://roocket.ir/public/image/2019/2/9/laravelgraphql.png",
          "price": "25000",
          "created_at": "2017-09-22 09:30:07",
          "updated_at": "2017-09-22 20:35:07"
        },
        {
          "id": 2,
          "user_id": 1,
          "title": "آموزش Flutter",
          "body": "r یک Software Development Kit و یا به اختصار SDK است که به ما کمک میکند اپلیکیشن های موبایلی با UI بسیار زیبا برای دو پلتفرم اندروید و ios ایجاد کنیم . یکی از ویژگی های مهم flutter این است که در زمان خروجی گرفتن از کدها به ما خروجی Native مربوط به هر پلتفرم را میدهد که به این صورت کارای اپلیکیشن های ما را بسیار بالا میبرد . زمان زیادی از ارائه Flutter نمیگذرد اما این ابزار در حال کسب محبوبیت بسیار زیادی است .",
          "image": "https://roocket.ir/public/image/2018/9/23/flutter-1.png",
          "price": "8000",
          "created_at": "2017-09-22 07:45:23",
          "updated_at": "2017-09-22 14:30:07"
        },
        {
          "id": 3,
          "user_id": 1,
          "title": "آموزش لاراول",
          "body": "فریمورک لاراول یکی از محبوبترین و بهترین فریم ورک های حال حاضر برای زبان php می باشد که هم در ایران و هم در خارج از ایران علاقه مندان زیادی دارد که علاقه دارن این فریمورک را بیاموزن و از آن در پروژه‌های شخصی و غیر‌شخصی استفاده کنن . از این رو ما هم تصمیم گرفتیم دوره آموزش لاراول را آماده کنیم و در اختیارتان قرار دهیم تا بتوانید خیلی خوب این فریمورک را فرا بگیرید.",
          "image": "https://roocket.ir/public/images/2019/10/22/laravel-2.png",
          "price": "90000",
          "created_at": "2017-09-22 14:30:07",
          "updated_at": "2017-09-22 14:30:07"
        },
        {
          "id": 4,
          "user_id": 1,
          "title": "آموزش reactjs",
          "body": "reactjs (ری اکت جی اس) یکی از محبوب‌ترین کتابخانه‌های جاوااسکریپتی حال حاضر است که توسط فیسبوک با هدف تعامل بهتر جاوا‌اسکریپت و html ارائه شده تا شما بتوانید با استفاده از آن رابط‌های کاربری خودتان را بهتر از قبل بوجود بیاروید . با استفاده از پکیج‌های مختلف در reactjs شما به سادگی میتوانید این کتابخانه ساده را به یک ابزار قدرتمند برای ایجاد وبسایت‌های خود مورد استفاده قرار دهید.برای همین در این دوره قصد دارم reactjs را به شما آموزش دهم.",
          "image": "https://roocket.ir/public/images/2019/8/17/react-2.png",
          "price": "1000",
          "created_at": "2017-09-22 19:30:22",
          "updated_at": "2017-09-22 14:30:07"
        },
        {
          "id": 5,
          "user_id": 1,
          "title": "آموزش Redux",
          "body": "شاید تا به حال اسم Redux رو نشنیده باشید اما اگر با جاوااسکریپت یا کتابخانه ReactJs کار کردید حتما پیشنهاد میکنم این توضیحات رو مطالعه کنید . ببینید ReactJs یک کتابخانه جاوااسکریپتی ، با هدف ایجاد راحتتر UI ها ، توسط فیسبوک ایجاد شده است که واقعا هم در ایران و جهان مورد توجه خیلی از توسعه دهندگان جاوا اسکریپتی قرار گرفته. حالا در کنار این کتابخانه ، فیسبوک یک مفهوم یا یک الگو ارائه داده تا یک قدم ReactJs رو فراتر از یک کتابخانه معمولی بودن ببره و بشه از اون در پروژه های بزرگ هم با استفاده از این مفهوم استفاده کرد . ",
          "image": "https://roocket.ir/public/image/2018/9/4/redux-cover.jpg",
          "price": "48000",
          "created_at": "2017-09-22 22:10:07",
          "updated_at": "2017-09-22 14:30:07"
        },
        {
          "id": 6,
          "user_id": 1,
          "title": "آموزش جاوااسکریپت ES8 و ES7",
          "body": "جاوا اسکریپت، پیاده سازی ECMA Script است (با تلفظ اکما اسکریپت) که به صورت مخفف به آن ES هم گفته می‌شود . در گذشته در دوره ای با عنوان ES۶ تغییرات بزرگ و پیشرفته جاوا اسکریپت را به شما آموزش دادیم در این دوره هم قصد دارم تغییراتی که در استاندارد های جدید ES۲۰۱۶ و ES۲۰۱۷ معرفی شد را به شما آموزش دهم .",
          "image": "https://roocket.ir/public/image/2018/3/25/ecma-1.png",
          "price": "125000",
          "created_at": "2017-09-22 01:55:47",
          "updated_at": "2017-09-22 14:30:07"
        }
      ],
      "first_page_url": "http://www.roocket.org/api/products?page=1",
      "from": 31,
      "last_page": 10,
      "last_page_url": "http://www.roocket.org/api/products?page=10",
      "next_page_url": "http://www.roocket.org/api/products?page=7",
      "path": "http://www.roocket.org/api/products",
      "per_page": 6,
      "prev_page_url": "http://www.roocket.org/api/products?page=5",
      "to": 36,
      "total": 56
    },
    "status": "success"
  }